Ile średnio auto ma części?, 30 tys, 25 tys, 27 tys, 35 tys,1
Jakie zwierze ma na logu Porsche?, koń, pies, osioł, orła,1
Kto grał postać wolverine?, Hugh Jackman, Nicholas Cage, Nicole Kidman, Emily Blunt,1
1 odcinek South Park emitowano w.., 1997 roku, 1995 roku, 1999 roku, 2000 roku,1
Ile cząsteczek tlenu ma ozon?, 3, 4, 1, 5,1
Czym mierzymy trzęsienia ziemi?, Skala Richtera, Skala Celsjusza, Skala Fahrenheita, Skala Kelvina,1
Która planeta jest najgorętsza?, Wenus, Mars, Merkury, Ziemia
Kto odkrył penicylinę?, Alexander Fleming, Marie Curie, Nikola Tesla, John Bush,1
Jaki skrót kopiuje tekst?, ctrl+c, ctrl+a, ctrl+d, ctrl+q,1
Ilu ludzi jest na świecie?, 7.8B , 7.5B, 8.2B, 9.1B,1
Jaka substancja ma znak H2O?, woda, wódka, kwas siarkowy, krew,1
Co naprawia szewc?, buty, spodnie , marynarki , koszule,1