Z iloma krajami graniczy Polska1?, 7, 8, 9, 2,1
Jaki wynik da to działanie? 2*2+2, 6, 8, 16, 4,1
Jak umarła córka Cersi Myrcella?, Zatruta, Uduszona, Choroba, Inny sposób,1
Kiedy użyto nowoczesnego papieru?, 105, 100, 25, 40,1
Jaki jest symbol chemiczny srebra?, AG, BG, HD, HDD,1
Jaka jest stolica Portugalii?, Lizbona, Berlin, Rzym,Kraków,1
Ile ran klutych zadano Cezarowi?, 23, 15, 45, 2,1
Ile włosów ma typowa ludzka głowa?, 10 000, 9 000, 15 000, 12 000,1
Jaka jest żywotność ważki?, 24 godziny, 12 godzin, 20 godzin, 2 dni,1
Kiedy zatonął titanic2?, 1912, 1854, 1314, 1987,1
Kiedy urodził się William Shakespeare, 1564, 1565, 1546 , 1755,1
W którym roku był koniec IIWŚ?, 1945, 1946, 1944, 1955,1